Project 7(sobel)/sobel/Trash/0001_20231101121312-000_sobel_test.vcd
$date
     Nov 01, 2023       12:10:44
$end

$version
              SystemC 2.3.0-ASI --- May 14 2013 20:13:57
$end

$timescale
     100 fs
$end

$scope module SystemC $end
$var wire    1  aaa  user_sobel/Cysim_State       $end
$var wire    8  aab  user_sobel/input_row_a00 [7:0]  $end
$var wire    8  aac  user_sobel/input_row_a01 [7:0]  $end
$var wire    8  aad  user_sobel/input_row_a02 [7:0]  $end
$var wire    8  aae  user_sobel/sobel_ret [7:0]  $end
$var wire    1  aaf  user_sobel/CLOCK       $end
$var wire    1  aag  user_sobel/RESET       $end
$upscope $end
$enddefinitions  $end

$comment
All initial values are dumped below at time 0 sec = 0 timescale units.
$end

$dumpvars
0aaa
b0 aab
b0 aac
b0 aad
b0 aae
0aaf
1aag
$end

#200000
1aaf

#300000
0aaf

#400000
1aaf

#500000
0aaf

#600000
1aaf

#700000
0aaf

#800000
1aaf

#900000
0aaf

#1000000
1aaf

#1100000
0aaf

#1200000
1aaf

#1300000
0aaf

#1400000
1aaf

#1500000
0aaf

#1600000
1aaf

#1700000
0aaf

#1800000
1aaf

#1900000
0aaf

#2000000
1aaf

#2050001
0aag

#2100000
0aaf

#2200000
b11111111 aae
1aaf

#2300000
0aaf

#2400000
1aaf

#2500000
0aaf

#2600000
1aaf

#2700000
0aaf

#2800000
1aaf

#2900000
0aaf

#3000000
1aaf

#3100000
0aaf

#3200000
1aaf

#3300000
0aaf

#3400000
1aaf

#3500000
0aaf

#3600000
1aaf

#3700000
0aaf

#3800000
1aaf

#3900000
0aaf

#4000000
1aaf

#4100000
0aaf

#4200000
1aaf

#4300000
0aaf

#4400000
1aaf

#4500000
0aaf

#4600000
1aaf

#4700000
0aaf

#4800000
1aaf

#4900000
0aaf

#5000000
1aaf

#5100000
0aaf

#5200000
1aaf

#5300000
0aaf

#5400000
1aaf

#5500000
0aaf

#5600000
1aaf

#5700000
0aaf

#5800000
1aaf

#5900000
0aaf

#6000000
1aaf

#6100000
0aaf

#6200000
1aaf

#6300000
0aaf

#6400000
1aaf

#6500000
0aaf

#6600000
1aaf

#6700000
0aaf

#6800000
1aaf

#6900000
0aaf

#7000000
1aaf

#7100000
0aaf

#7200000
1aaf

#7300000
0aaf

#7400000
1aaf

#7500000
0aaf

#7600000
1aaf

#7700000
0aaf

#7800000
1aaf

#7900000
0aaf

#8000000
1aaf

#8100000
0aaf

#8200000
1aaf

#8300000
0aaf

#8400000
1aaf

#8500000
0aaf

#8600000
1aaf

#8700000
0aaf

#8800000
1aaf

#8900000
0aaf

#9000000
1aaf

#9100000
0aaf

#9200000
1aaf

#9300000
0aaf

#9400000
1aaf

#9500000
0aaf

#9600000
1aaf

#9700000
0aaf

#9800000
1aaf

#9900000
0aaf

#10000000
1aaf

#10100000
0aaf

#10200000
1aaf

#10300000
0aaf

#10400000
1aaf

#10500000
0aaf

#10600000
1aaf

#10700000
0aaf

#10800000
1aaf

#10900000
0aaf

#11000000
1aaf

#11100000
0aaf

#11200000
1aaf

#11300000
0aaf

#11400000
1aaf

#11500000
0aaf

#11600000
1aaf

#11700000
0aaf

#11800000
1aaf

#11900000
0aaf

#12000000
1aaf

#12100000
0aaf

#12200000
1aaf

#12300000
0aaf

#12400000
1aaf

#12500000
0aaf

#12600000
1aaf

#12700000
0aaf

#12800000
1aaf

#12900000
0aaf

#13000000
1aaf

#13100000
0aaf

#13200000
1aaf

#13300000
0aaf

#13400000
1aaf

#13500000
0aaf

#13600000
1aaf

#13700000
0aaf

#13800000
1aaf

#13900000
0aaf

#14000000
1aaf

#14100000
0aaf

#14200000
1aaf

#14300000
0aaf

#14400000
1aaf

#14500000
0aaf

#14600000
1aaf

#14700000
0aaf

#14800000
1aaf

#14900000
0aaf

#15000000
1aaf

#15100000
0aaf

#15200000
1aaf

#15300000
0aaf

#15400000
1aaf

#15500000
0aaf

#15600000
1aaf

#15700000
0aaf

#15800000
1aaf

#15900000
0aaf

#16000000
1aaf

#16100000
0aaf

#16200000
1aaf

#16300000
0aaf

#16400000
1aaf

#16500000
0aaf

#16600000
1aaf

#16700000
0aaf

#16800000
1aaf

#16900000
0aaf

#17000000
1aaf

#17100000
0aaf

#17200000
1aaf

#17300000
0aaf

#17400000
1aaf

#17500000
0aaf

#17600000
1aaf

#17700000
0aaf

#17800000
1aaf

#17900000
0aaf

#18000000
1aaf

#18100000
0aaf

#18200000
1aaf

#18300000
0aaf

#18400000
1aaf

#18500000
0aaf

#18600000
1aaf

#18700000
0aaf

#18800000
1aaf

#18900000
0aaf

#19000000
1aaf

#19100000
0aaf

#19200000
1aaf

#19300000
0aaf

#19400000
1aaf

#19500000
0aaf

#19600000
1aaf

#19700000
0aaf

#19800000
1aaf

#19900000
0aaf

#20000000
1aaf

#20100000
0aaf

#20200000
1aaf

#20300000
0aaf

#20400000
1aaf

#20500000
0aaf

#20600000
1aaf

#20700000
0aaf

#20800000
1aaf

#20900000
0aaf

#21000000
1aaf

#21100000
0aaf

#21200000
1aaf

#21300000
0aaf

#21400000
1aaf

#21500000
0aaf

#21600000
1aaf

#21700000
0aaf

#21800000
1aaf

#21900000
0aaf

#22000000
1aaf

#22100000
0aaf

#22200000
1aaf

#22300000
0aaf

#22400000
1aaf

#22500000
0aaf

#22600000
1aaf

#22700000
0aaf

#22800000
1aaf

#22900000
0aaf

#23000000
1aaf

#23100000
0aaf

#23200000
1aaf

#23300000
0aaf

#23400000
1aaf

#23500000
0aaf

#23600000
1aaf

#23700000
0aaf

#23800000
1aaf

#23900000
0aaf

#24000000
1aaf

#24100000
0aaf

#24200000
1aaf

#24300000
0aaf

#24400000
1aaf

#24500000
0aaf

#24600000
1aaf

#24700000
0aaf

#24800000
1aaf

#24900000
0aaf

#25000000
1aaf

#25100000
0aaf

#25200000
1aaf

#25300000
0aaf

#25400000
1aaf

#25500000
0aaf

#25600000
1aaf

#25700000
0aaf

#25800000
1aaf

#25900000
0aaf

#26000000
1aaf

#26100000
0aaf

#26200000
1aaf

#26300000
0aaf

#26400000
1aaf

#26500000
0aaf

#26600000
1aaf

#26700000
0aaf

#26800000
1aaf

#26900000
0aaf

#27000000
1aaf

#27100000
0aaf

#27200000
1aaf

#27300000
0aaf

#27400000
1aaf

#27500000
0aaf

#27600000
1aaf

#27700000
0aaf

#27800000
1aaf

#27900000
0aaf

#28000000
1aaf

#28100000
0aaf

#28200000
1aaf

#28300000
0aaf

#28400000
1aaf

#28500000
0aaf

#28600000
1aaf

#28700000
0aaf

#28800000
1aaf

#28900000
0aaf

#29000000
1aaf

#29100000
0aaf

#29200000
1aaf

#29300000
0aaf

#29400000
1aaf

#29500000
0aaf

#29600000
1aaf

#29700000
0aaf

#29800000
1aaf

#29900000
0aaf

#30000000
1aaf

#30100000
0aaf

#30200000
1aaf

#30300000
0aaf

#30400000
1aaf

#30500000
0aaf

#30600000
1aaf

#30700000
0aaf

#30800000
1aaf

#30900000
0aaf

#31000000
1aaf

#31100000
0aaf

#31200000
1aaf

#31300000
0aaf

#31400000
1aaf

#31500000
0aaf

#31600000
1aaf

#31700000
0aaf

#31800000
1aaf

#31900000
0aaf

#32000000
1aaf

#32100000
0aaf

#32200000
1aaf

#32300000
0aaf

#32400000
1aaf

#32500000
0aaf

#32600000
1aaf

#32700000
0aaf

#32800000
1aaf

#32900000
0aaf

#33000000
1aaf

#33100000
0aaf

#33200000
1aaf

#33300000
0aaf

#33400000
1aaf

#33500000
0aaf

#33600000
1aaf

#33700000
0aaf

#33800000
1aaf

#33900000
0aaf

#34000000
1aaf

#34100000
0aaf

#34200000
1aaf

#34300000
0aaf

#34400000
1aaf

#34500000
0aaf

#34600000
1aaf

#34700000
0aaf

#34800000
1aaf

#34900000
0aaf

#35000000
1aaf

#35100000
0aaf

#35200000
1aaf

#35300000
0aaf

#35400000
1aaf

#35500000
0aaf

#35600000
1aaf

#35700000
0aaf

#35800000
1aaf

#35900000
0aaf

#36000000
1aaf

#36100000
0aaf

#36200000
1aaf

#36300000
0aaf

#36400000
1aaf

#36500000
0aaf

#36600000
1aaf

#36700000
0aaf

#36800000
1aaf

#36900000
0aaf

#37000000
1aaf

#37100000
0aaf

#37200000
1aaf

#37300000
0aaf

#37400000
1aaf

#37500000
0aaf

#37600000
1aaf

#37700000
0aaf

#37800000
1aaf

#37900000
0aaf

#38000000
1aaf

#38100000
0aaf

#38200000
1aaf

#38300000
0aaf

#38400000
1aaf

#38500000
0aaf

#38600000
1aaf

#38700000
0aaf

#38800000
1aaf

#38900000
0aaf

#39000000
1aaf

#39100000
0aaf

#39200000
1aaf

#39300000
0aaf

#39400000
1aaf

#39500000
0aaf

#39600000
1aaf

#39700000
0aaf

#39800000
1aaf

#39900000
0aaf

#40000000
1aaf

#40100000
0aaf

#40200000
1aaf

#40300000
0aaf

#40400000
1aaf

#40500000
0aaf

#40600000
1aaf

#40700000
0aaf

#40800000
1aaf

#40900000
0aaf

#41000000
1aaf

#41100000
0aaf

#41200000
1aaf

#41300000
0aaf

#41400000
1aaf

#41500000
0aaf

#41600000
1aaf

#41700000
0aaf

#41800000
1aaf

#41900000
0aaf

#42000000
1aaf

#42100000
0aaf

#42200000
1aaf

#42300000
0aaf

#42400000
1aaf

#42500000
0aaf

#42600000
1aaf

#42700000
0aaf

#42800000
1aaf

#42900000
0aaf

#43000000
1aaf

#43100000
0aaf

#43200000
1aaf

#43300000
0aaf

#43400000
1aaf

#43500000
0aaf

#43600000
1aaf

#43700000
0aaf

#43800000
1aaf

#43900000
0aaf

#44000000
1aaf

#44100000
0aaf

#44200000
1aaf

#44300000
0aaf

#44400000
1aaf

#44500000
0aaf

#44600000
1aaf

#44700000
0aaf

#44800000
1aaf

#44900000
0aaf

#45000000
1aaf

#45100000
0aaf

#45200000
1aaf

#45300000
0aaf

#45400000
1aaf

#45500000
0aaf

#45600000
1aaf

#45700000
0aaf

#45800000
1aaf

#45900000
0aaf

#46000000
1aaf

#46100000
0aaf

#46200000
1aaf

#46300000
0aaf

#46400000
1aaf

#46500000
0aaf

#46600000
1aaf

#46700000
0aaf

#46800000
1aaf

#46900000
0aaf

#47000000
1aaf

#47100000
0aaf

#47200000
1aaf

#47300000
0aaf

#47400000
1aaf

#47500000
0aaf

#47600000
1aaf

#47700000
0aaf

#47800000
1aaf

#47900000
0aaf

#48000000
1aaf

#48100000
0aaf

#48200000
1aaf

#48300000
0aaf

#48400000
1aaf

#48500000
0aaf

#48600000
1aaf

#48700000
0aaf

#48800000
1aaf

#48900000
0aaf

#49000000
1aaf

#49100000
0aaf

#49200000
1aaf

#49300000
0aaf

#49400000
1aaf

#49500000
0aaf

#49600000
1aaf

#49700000
0aaf

#49800000
1aaf

#49900000
0aaf

#50000000
1aaf

#50100000
0aaf

#50200000
1aaf

#50300000
0aaf

#50400000
1aaf

#50500000
0aaf

#50600000
1aaf

#50700000
0aaf

#50800000
1aaf

#50900000
0aaf

#51000000
1aaf

#51100000
0aaf

#51200000
1aaf

#51300000
0aaf

#51400000
1aaf

#51500000
0aaf

#51600000
1aaf

#51700000
0aaf

#51800000
1aaf

#51900000
0aaf

#52000000
1aaf

#52100000
0aaf

#52200000
1aaf

#52300000
0aaf

#52400000
1aaf

#52500000
0aaf

#52600000
1aaf

#52700000
0aaf

#52800000
1aaf

#52900000
0aaf

#53000000
1aaf

#53100000
0aaf

#53200000
1aaf

#53300000
0aaf

#53400000
1aaf

#53500000
0aaf

#53600000
1aaf

#53700000
0aaf

#53800000
1aaf

#53900000
0aaf

#54000000
1aaf

#54100000
0aaf

#54200000
1aaf

#54300000
0aaf

#54400000
1aaf

#54500000
0aaf

#54600000
1aaf

#54700000
0aaf

#54800000
1aaf

#54900000
0aaf

#55000000
1aaf

#55100000
0aaf

#55200000
1aaf

#55300000
0aaf

#55400000
1aaf

#55500000
0aaf

#55600000
1aaf

#55700000
0aaf

#55800000
1aaf

#55900000
0aaf

#56000000
1aaf

#56100000
0aaf

#56200000
1aaf

#56300000
0aaf

#56400000
1aaf

#56500000
0aaf

#56600000
1aaf

#56700000
0aaf

#56800000
1aaf

#56900000
0aaf

#57000000
1aaf

#57100000
0aaf

#57200000
1aaf

#57300000
0aaf

#57400000
1aaf

#57500000
0aaf

#57600000
1aaf

#57700000
0aaf

#57800000
1aaf

#57900000
0aaf

#58000000
1aaf

#58100000
0aaf

#58200000
1aaf

#58300000
0aaf

#58400000
1aaf

#58500000
0aaf

#58600000
1aaf

#58700000
0aaf

#58800000
1aaf

#58900000
0aaf

#59000000
1aaf

#59100000
0aaf

#59200000
1aaf

#59300000
0aaf

#59400000
1aaf

#59500000
0aaf

#59600000
1aaf

#59700000
0aaf

#59800000
1aaf

#59900000
0aaf

#60000000
1aaf

#60100000
0aaf

#60200000
1aaf

#60300000
0aaf

#60400000
1aaf

#60500000
0aaf

#60600000
1aaf

#60700000
0aaf

#60800000
1aaf

#60900000
0aaf

#61000000
1aaf

#61100000
0aaf

#61200000
1aaf

#61300000
0aaf

#61400000
1aaf

#61500000
0aaf

#61600000
1aaf

#61700000
0aaf

#61800000
1aaf

#61900000
0aaf

#62000000
1aaf

#62100000
0aaf

#62200000
1aaf

#62300000
0aaf

#62400000
1aaf

#62500000
0aaf

#62600000
1aaf

#62700000
0aaf

#62800000
1aaf

#62900000
0aaf

#63000000
1aaf

#63100000
0aaf

#63200000
1aaf

#63300000
0aaf

#63400000
1aaf

#63500000
0aaf

#63600000
1aaf

#63700000
0aaf

#63800000
1aaf

#63900000
0aaf

#64000000
1aaf

#64100000
0aaf

#64200000
1aaf

#64300000
0aaf

#64400000
1aaf

#64500000
0aaf

#64600000
1aaf

#64700000
0aaf

#64800000
1aaf

#64900000
0aaf

#65000000
1aaf

#65100000
0aaf

#65200000
1aaf

#65300000
0aaf

#65400000
1aaf

#65500000
0aaf

#65600000
1aaf

#65700000
0aaf

#65800000
1aaf

#65900000
0aaf

#66000000
1aaf

#66100000
0aaf

#66200000
1aaf

#66300000
0aaf

#66400000
1aaf

#66500000
0aaf

#66600000
1aaf

#66700000
0aaf

#66800000
1aaf

#66900000
0aaf

#67000000
1aaf

#67100000
0aaf

#67200000
1aaf

#67300000
0aaf

#67400000
1aaf

#67500000
0aaf

#67600000
1aaf

#67700000
0aaf

#67800000
1aaf

#67900000
0aaf

#68000000
1aaf

#68100000
0aaf

#68200000
1aaf

#68300000
0aaf

#68400000
1aaf

#68500000
0aaf

#68600000
1aaf

#68700000
0aaf

#68800000
1aaf

#68900000
0aaf

#69000000
1aaf

#69100000
0aaf

#69200000
1aaf

#69300000
0aaf

#69400000
1aaf

#69500000
0aaf

#69600000
1aaf

#69700000
0aaf

#69800000
1aaf

#69900000
0aaf

#70000000
1aaf

#70100000
0aaf

#70200000
1aaf

#70300000
0aaf

#70400000
1aaf

#70500000
0aaf

#70600000
1aaf

#70700000
0aaf

#70800000
1aaf

#70900000
0aaf

#71000000
1aaf

#71100000
0aaf

#71200000
1aaf

#71300000
0aaf

#71400000
1aaf

#71500000
0aaf

#71600000
1aaf

#71700000
0aaf

#71800000
1aaf

#71900000
0aaf

#72000000
1aaf

#72100000
0aaf

#72200000
1aaf

#72300000
0aaf

#72400000
1aaf

#72500000
0aaf

#72600000
1aaf

#72700000
0aaf

#72800000
1aaf

#72900000
0aaf

#73000000
1aaf

#73100000
0aaf

#73200000
1aaf

#73300000
0aaf

#73400000
1aaf

#73500000
0aaf

#73600000
1aaf

#73700000
0aaf

#73800000
1aaf

#73900000
0aaf

#74000000
1aaf

#74100000
0aaf

#74200000
1aaf

#74300000
0aaf

#74400000
1aaf

#74500000
0aaf

#74600000
1aaf

#74700000
0aaf

#74800000
1aaf

#74900000
0aaf

#75000000
1aaf

#75100000
0aaf

#75200000
1aaf

#75300000
0aaf

#75400000
1aaf

#75500000
0aaf

#75600000
1aaf

#75700000
0aaf

#75800000
1aaf

#75900000
0aaf

#76000000
1aaf

#76100000
0aaf

#76200000
1aaf

#76300000
0aaf

#76400000
1aaf

#76500000
0aaf

#76600000
1aaf

#76700000
0aaf

#76800000
1aaf

#76900000
0aaf

#77000000
1aaf

#77100000
0aaf

#77200000
1aaf

#77300000
0aaf

#77400000
1aaf

#77500000
0aaf

#77600000
1aaf

#77700000
0aaf

#77800000
1aaf

#77900000
0aaf

#78000000
1aaf

#78100000
0aaf

#78200000
1aaf

#78300000
0aaf

#78400000
1aaf

#78500000
0aaf

#78600000
1aaf

#78700000
0aaf

#78800000
1aaf

#78900000
0aaf

#79000000
1aaf

#79100000
0aaf

#79200000
1aaf

#79300000
0aaf

#79400000
1aaf

#79500000
0aaf

#79600000
1aaf

#79700000
0aaf

#79800000
1aaf

#79900000
0aaf

#80000000
1aaf

#80100000
0aaf

#80200000
1aaf

#80300000
0aaf

#80400000
1aaf

#80500000
0aaf

#80600000
1aaf

#80700000
0aaf

#80800000
1aaf

#80900000
0aaf

#81000000
1aaf

#81100000
0aaf

#81200000
1aaf

#81300000
0aaf

#81400000
1aaf

#81500000
0aaf

#81600000
1aaf

#81700000
0aaf

#81800000
1aaf

#81900000
0aaf

#82000000
1aaf

#82100000
0aaf

#82200000
1aaf

#82300000
0aaf

#82400000
1aaf

#82500000
0aaf

#82600000
1aaf

#82700000
0aaf

#82800000
1aaf

#82900000
0aaf

#83000000
1aaf

#83100000
0aaf

#83200000
1aaf

#83300000
0aaf

#83400000
1aaf

#83500000
0aaf

#83600000
1aaf

#83700000
0aaf

#83800000
1aaf

#83900000
0aaf

#84000000
1aaf

#84100000
0aaf

#84200000
1aaf

#84300000
0aaf

#84400000
1aaf

#84500000
0aaf

#84600000
1aaf

#84700000
0aaf

#84800000
1aaf

#84900000
0aaf

#85000000
1aaf

#85100000
0aaf

#85200000
1aaf

#85300000
0aaf

#85400000
1aaf

#85500000
0aaf

#85600000
1aaf

#85700000
0aaf

#85800000
1aaf

#85900000
0aaf

#86000000
1aaf

#86100000
0aaf

#86200000
1aaf

#86300000
0aaf

#86400000
1aaf

#86500000
0aaf

#86600000
1aaf

#86700000
0aaf

#86800000
1aaf

#86900000
0aaf

#87000000
1aaf

#87100000
0aaf

#87200000
1aaf

#87300000
0aaf

#87400000
1aaf

#87500000
0aaf

#87600000
1aaf

#87700000
0aaf

#87800000
1aaf

#87900000
0aaf

#88000000
1aaf

#88100000
0aaf

#88200000
1aaf

#88300000
0aaf

#88400000
1aaf

#88500000
0aaf

#88600000
1aaf

#88700000
0aaf

#88800000
1aaf

#88900000
0aaf

#89000000
1aaf

#89100000
0aaf

#89200000
1aaf

#89300000
0aaf

#89400000
1aaf

#89500000
0aaf

#89600000
1aaf

#89700000
0aaf

#89800000
1aaf

#89900000
0aaf

#90000000
1aaf

#90100000
0aaf

#90200000
1aaf

#90300000
0aaf

#90400000
1aaf

#90500000
0aaf

#90600000
1aaf

#90700000
0aaf

#90800000
1aaf

#90900000
0aaf

#91000000
1aaf

#91100000
0aaf

#91200000
1aaf

#91300000
0aaf

#91400000
1aaf

#91500000
0aaf

#91600000
1aaf

#91700000
0aaf

#91800000
1aaf

#91900000
0aaf

#92000000
1aaf

#92100000
0aaf

#92200000
1aaf

#92300000
0aaf

#92400000
1aaf

#92500000
0aaf

#92600000
1aaf

#92700000
0aaf

#92800000
1aaf

#92900000
0aaf

#93000000
1aaf

#93100000
0aaf

#93200000
1aaf

#93300000
0aaf

#93400000
1aaf

#93500000
0aaf

#93600000
1aaf

#93700000
0aaf

#93800000
1aaf

#93900000
0aaf

#94000000
1aaf

#94100000
0aaf

#94200000
1aaf

#94300000
0aaf

#94400000
1aaf

#94500000
0aaf

#94600000
1aaf

#94700000
0aaf

#94800000
1aaf

#94900000
0aaf

#95000000
1aaf

#95100000
0aaf

#95200000
1aaf

#95300000
0aaf

#95400000
1aaf

#95500000
0aaf

#95600000
1aaf

#95700000
0aaf

#95800000
1aaf

#95900000
0aaf

#96000000
1aaf

#96100000
0aaf

#96200000
1aaf

#96300000
0aaf

#96400000
1aaf

#96500000
0aaf

#96600000
1aaf

#96700000
0aaf

#96800000
1aaf

#96900000
0aaf

#97000000
1aaf

#97100000
0aaf

#97200000
1aaf

#97300000
0aaf

#97400000
1aaf

#97500000
0aaf

#97600000
1aaf

#97700000
0aaf

#97800000
1aaf

#97900000
0aaf

#98000000
1aaf

#98100000
0aaf

#98200000
1aaf

#98300000
0aaf

#98400000
1aaf

#98500000
0aaf

#98600000
1aaf

#98700000
0aaf

#98800000
1aaf

#98900000
0aaf

#99000000
1aaf

#99100000
0aaf

#99200000
1aaf

#99300000
0aaf

#99400000
1aaf

#99500000
0aaf

#99600000
1aaf

#99700000
0aaf

#99800000
1aaf

#99900000
0aaf

#100000000
1aaf

#100100000
0aaf

#100200000
1aaf

#100300000
0aaf

#100400000
1aaf

#100500000
0aaf

#100600000
1aaf

#100700000
0aaf

#100800000
1aaf

#100900000
0aaf

#101000000
1aaf

#101100000
0aaf

#101200000
1aaf

#101300000
0aaf

#101400000
1aaf

#101500000
0aaf

#101600000
1aaf

#101700000
0aaf

#101800000
1aaf

#101900000
0aaf

#102000000
1aaf

#102100000
0aaf

#102200000
1aaf

#102300000
0aaf

#102400000
1aaf

#102500000
0aaf

#102600000
1aaf

#102700000
0aaf

#102800000
1aaf

#102900000
0aaf

#103000000
1aaf

#103100000
0aaf

#103200000
1aaf

#103300000
0aaf

#103400000
1aaf

#103500000
0aaf

#103600000
1aaf

#103700000
0aaf

#103800000
1aaf

#103900000
0aaf

#104000000
1aaf

#104100000
0aaf

#104200000
1aaf

#104300000
0aaf

#104400000
1aaf

#104500000
0aaf

#104600000
1aaf

#104700000
0aaf

#104800000
1aaf

#104900000
0aaf

#105000000
1aaf

#105100000
0aaf

#105200000
1aaf

#105300000
0aaf

#105400000
1aaf

#105500000
0aaf

#105600000
1aaf

#105700000
0aaf

#105800000
1aaf

#105900000
0aaf

#106000000
1aaf

#106100000
0aaf

#106200000
1aaf

#106300000
0aaf

#106400000
1aaf

#106500000
0aaf

#106600000
1aaf

#106700000
0aaf

#106800000
1aaf

#106900000
0aaf

#107000000
1aaf

#107100000
0aaf

#107200000
1aaf

#107300000
0aaf

#107400000
1aaf

#107500000
0aaf

#107600000
1aaf

#107700000
0aaf

#107800000
1aaf

#107900000
0aaf

#108000000
1aaf

#108100000
0aaf

#108200000
1aaf

#108300000
0aaf

#108400000
1aaf

#108500000
0aaf

#108600000
1aaf

#108700000
0aaf

#108800000
1aaf

#108900000
0aaf

#109000000
1aaf

#109100000
0aaf

#109200000
1aaf

#109300000
0aaf

#109400000
1aaf

#109500000
0aaf

#109600000
1aaf

#109700000
0aaf

#109800000
1aaf

#109900000
0aaf

#110000000
1aaf

#110100000
0aaf

#110200000
1aaf

#110300000
0aaf

#110400000
1aaf

#110500000
0aaf

#110600000
1aaf

#110700000
0aaf

#110800000
1aaf

#110900000
0aaf

#111000000
1aaf

#111100000
0aaf

#111200000
1aaf

#111300000
0aaf

#111400000
1aaf

#111500000
0aaf

#111600000
1aaf

#111700000
0aaf

#111800000
1aaf

#111900000
0aaf

#112000000
1aaf

#112100000
0aaf

#112200000
1aaf

#112300000
0aaf

#112400000
1aaf

#112500000
0aaf

#112600000
1aaf

#112700000
0aaf

#112800000
1aaf

#112900000
0aaf

#113000000
1aaf

#113100000
0aaf

#113200000
1aaf

#113300000
0aaf

#113400000
1aaf

#113500000
0aaf

#113600000
1aaf

#113700000
0aaf

#113800000
1aaf

#113900000
0aaf

#114000000
1aaf

#114100000
0aaf

#114200000
1aaf

#114300000
0aaf

#114400000
1aaf

#114500000
0aaf

#114600000
1aaf

#114700000
0aaf

#114800000
1aaf

#114900000
0aaf

#115000000
1aaf

#115100000
0aaf

#115200000
1aaf

#115300000
0aaf

#115400000
1aaf

#115500000
0aaf

#115600000
1aaf

#115700000
0aaf

#115800000
1aaf

#115900000
0aaf

#116000000
1aaf

#116100000
0aaf

#116200000
1aaf

#116300000
0aaf

#116400000
1aaf

#116500000
0aaf

#116600000
1aaf

#116700000
0aaf

#116800000
1aaf

#116900000
0aaf

#117000000
1aaf

#117100000
0aaf

#117200000
1aaf

#117300000
0aaf

#117400000
1aaf

#117500000
0aaf

#117600000
1aaf

#117700000
0aaf

#117800000
1aaf

#117900000
0aaf

#118000000
1aaf

#118100000
0aaf

#118200000
1aaf

#118300000
0aaf

#118400000
1aaf

#118500000
0aaf

#118600000
1aaf

#118700000
0aaf

#118800000
1aaf

#118900000
0aaf

#119000000
1aaf

#119100000
0aaf

#119200000
1aaf

#119300000
0aaf

#119400000
1aaf

#119500000
0aaf

#119600000
1aaf

#119700000
0aaf

#119800000
1aaf

#119900000
0aaf

#120000000
1aaf

#120100000
0aaf

#120200000
1aaf

#120300000
0aaf

#120400000
1aaf

#120500000
0aaf

#120600000
1aaf

#120700000
0aaf

#120800000
1aaf

#120900000
0aaf

#121000000
1aaf

#121100000
0aaf

#121200000
1aaf

#121300000
0aaf

#121400000
1aaf

#121500000
0aaf

#121600000
1aaf

#121700000
0aaf

#121800000
1aaf

#121900000
0aaf

#122000000
1aaf

#122100000
0aaf

#122200000
1aaf

#122300000
0aaf

#122400000
1aaf

#122500000
0aaf

#122600000
1aaf

#122700000
0aaf

#122800000
1aaf

#122900000
0aaf

#123000000
1aaf

#123100000
0aaf

#123200000
1aaf

#123300000
0aaf

#123400000
1aaf

#123500000
0aaf

#123600000
1aaf

#123700000
0aaf

#123800000
1aaf

#123900000
0aaf

#124000000
1aaf

#124100000
0aaf

#124200000
1aaf

#124300000
0aaf

#124400000
1aaf

#124500000
0aaf

#124600000
1aaf

#124700000
0aaf

#124800000
1aaf

#124900000
0aaf

#125000000
1aaf

#125100000
0aaf

#125200000
1aaf

#125300000
0aaf

#125400000
1aaf

#125500000
0aaf

#125600000
1aaf

#125700000
0aaf

#125800000
1aaf

#125900000
0aaf

#126000000
1aaf

#126100000
0aaf

#126200000
1aaf

#126300000
0aaf

#126400000
1aaf

#126500000
0aaf

#126600000
1aaf

#126700000
0aaf

#126800000
1aaf

#126900000
0aaf

#127000000
1aaf

#127100000
0aaf

#127200000
1aaf

#127300000
0aaf

#127400000
1aaf

#127500000
0aaf

#127600000
1aaf

#127700000
0aaf

#127800000
1aaf

#127900000
0aaf

#128000000
1aaf

#128100000
0aaf

#128200000
1aaf

#128300000
0aaf

#128400000
1aaf

#128500000
0aaf

#128600000
1aaf

#128700000
0aaf

#128800000
1aaf

#128900000
0aaf

#129000000
1aaf

#129100000
0aaf

#129200000
1aaf

#129300000
0aaf

#129400000
1aaf

#129500000
0aaf

#129600000
1aaf

#129700000
0aaf

#129800000
1aaf

#129900000
0aaf

#130000000
1aaf

#130100000
0aaf

#130200000
1aaf

#130300000
0aaf

#130400000
1aaf

#130500000
0aaf

#130600000
1aaf

#130700000
0aaf

#130800000
1aaf

#130900000
0aaf

#131000000
1aaf

#131100000
0aaf

#131200000
1aaf

#131300000
0aaf

#131400000
1aaf

#131500000
0aaf

#131600000
1aaf

#131700000
0aaf

#131800000
1aaf

#131900000
0aaf

#132000000
1aaf

#132100000
0aaf

#132200000
1aaf

#132300000
0aaf

#132400000
1aaf

#132500000
0aaf

#132600000
1aaf

#132700000
0aaf

#132800000
1aaf

#132900000
0aaf

#133000000
1aaf

#133100000
0aaf

#133200000
1aaf

#133300000
0aaf

#133400000
1aaf

#133500000
0aaf

#133600000
1aaf

#133700000
0aaf

#133800000
1aaf

#133900000
0aaf

#134000000
1aaf

#134100000
0aaf

#134200000
1aaf

#134300000
0aaf

#134400000
1aaf

#134500000
0aaf

#134600000
1aaf

#134700000
0aaf

#134800000
1aaf

#134900000
0aaf

#135000000
1aaf

#135100000
0aaf

#135200000
1aaf

#135300000
0aaf

#135400000
1aaf

#135500000
0aaf

#135600000
1aaf

#135700000
0aaf

#135800000
1aaf

#135900000
0aaf

#136000000
1aaf

#136100000
0aaf

#136200000
1aaf

#136300000
0aaf

#136400000
1aaf

#136500000
0aaf

#136600000
1aaf

#136700000
0aaf

#136800000
1aaf

#136900000
0aaf

#137000000
1aaf

#137100000
0aaf

#137200000
1aaf

#137300000
0aaf

#137400000
1aaf

#137500000
0aaf

#137600000
1aaf

#137700000
0aaf

#137800000
1aaf

#137900000
0aaf

#138000000
1aaf

#138100000
0aaf

#138200000
1aaf

#138300000
0aaf

#138400000
1aaf

#138500000
0aaf

#138600000
1aaf

#138700000
0aaf

#138800000
1aaf

#138900000
0aaf

#139000000
1aaf

#139100000
0aaf

#139200000
1aaf

#139300000
0aaf

#139400000
1aaf

#139500000
0aaf

#139600000
1aaf

#139700000
0aaf

#139800000
1aaf

#139900000
0aaf

#140000000
1aaf

#140100000
0aaf

#140200000
1aaf

#140300000
0aaf

#140400000
1aaf

#140500000
0aaf

#140600000
1aaf

#140700000
0aaf

#140800000
1aaf

#140900000
0aaf

#141000000
1aaf

#141100000
0aaf

#141200000
1aaf

#141300000
0aaf

#141400000
1aaf

#141500000
0aaf

#141600000
1aaf

#141700000
0aaf

#141800000
1aaf

#141900000
0aaf

#142000000
1aaf

#142100000
0aaf

#142200000
1aaf

#142300000
0aaf

#142400000
1aaf

#142500000
0aaf

#142600000
1aaf

#142700000
0aaf

#142800000
1aaf

#142900000
0aaf

#143000000
1aaf

#143100000
0aaf

#143200000
1aaf

#143300000
0aaf

#143400000
1aaf

#143500000
0aaf

#143600000
1aaf

#143700000
0aaf

#143800000
1aaf

#143900000
0aaf

#144000000
1aaf

#144100000
0aaf

#144200000
1aaf

#144300000
0aaf

#144400000
1aaf

#144500000
0aaf

#144600000
1aaf

#144700000
0aaf

#144800000
1aaf

#144900000
0aaf

#145000000
1aaf

#145100000
0aaf

#145200000
1aaf

#145300000
0aaf

#145400000
1aaf

#145500000
0aaf

#145600000
1aaf

#145700000
0aaf

