Project_6.3/ave8/ave8/simulation_work/ave8_cycle/ave8_test.vcd
$date
     Oct 27, 2023       16:19:11
$end

$version
              SystemC 2.3.0-ASI --- May 14 2013 20:13:57
$end

$timescale
     100 fs
$end

$scope module SystemC $end
$scope module user_ave8 $end
$var wire 1 aad CLOCK $end
$var wire 2 aaa Cysim_State [1:0] $end
$var wire 1 aae RESET $end
$var wire 8 aac ave8_ret [7:0] $end
$var wire 8 aab in0 [7:0] $end
$upscope $end
$upscope $end
$enddefinitions  $end
















































$comment
All initial values are dumped below at time 0 sec = 0 timescale units.
$end

$dumpvars
b0 aaa
b10 aab
b0 aac
0aad
1aae
$end

#20000
1aad

#30000
0aad

#40000
1aad

#50000
0aad

#60000
1aad

#70000
0aad

#80000
1aad

#90000
0aad

#100000
1aad

#110000
0aad

#120000
1aad

#130000
0aad

#140000
1aad

#150000
0aad

#160000
1aad

#170000
0aad

#180000
1aad

#190000
0aad

#200000
1aad

#210000
0aad

#220000
1aad

#230000
0aad

#240000
1aad

#250000
0aad

#260000
1aad

#270000
0aad

#280000
1aad

#290000
0aad

#300000
1aad

#310000
0aad

#320000
1aad

#330000
0aad

#340000
1aad

#350000
0aad

#360000
1aad

#370000
0aad

#380000
1aad

#390000
0aad

#400000
1aad

#410000
0aad

#420000
1aad

#430000
0aad

#440000
1aad

#450000
0aad

#460000
1aad

#470000
0aad

#480000
1aad

#490000
0aad

#500000
1aad

#510000
0aad

#520000
1aad

#530000
0aad

#540000
1aad

#550000
0aad

#560000
1aad

#570000
0aad

#580000
1aad

#590000
0aad

#600000
1aad

#610000
0aad

#620000
1aad

#630000
0aad

#640000
1aad

#650000
0aad

#660000
1aad

#670000
0aad

#680000
1aad

#690000
0aad

#700000
1aad

#710000
0aad

#720000
1aad

#730000
0aad

#740000
1aad

#750000
0aad

#760000
1aad

#770000
0aad

#780000
1aad

#790000
0aad

#800000
1aad

#810000
0aad

#820000
1aad

#830000
0aad

#840000
1aad

#850000
0aad

#860000
1aad

#870000
0aad

#880000
1aad

#890000
0aad

#900000
1aad

#910000
0aad

#920000
1aad

#930000
0aad

#940000
1aad

#950000
0aad

#960000
1aad

#970000
0aad

#980000
1aad

#990000
0aad

#1000000
1aad

#1010000
0aad

#1020000
1aad

#1030000
0aad

#1040000
1aad

#1050000
0aad

#1060000
1aad

#1070000
0aad

#1080000
1aad

#1090000
0aad

#1100000
1aad

#1110000
0aad

#1120000
1aad

#1130000
0aad

#1140000
1aad

#1150000
0aad

#1160000
1aad

#1170000
0aad

#1180000
1aad

#1190000
0aad

#1200000
1aad

#1210000
0aad

#1220000
1aad

#1230000
0aad

#1240000
1aad

#1250000
0aad

#1260000
1aad

#1270000
0aad

#1280000
1aad

#1290000
0aad

#1300000
1aad

#1310000
0aad

#1320000
1aad

#1330000
0aad

#1340000
1aad

#1350000
0aad

#1360000
1aad

#1370000
0aad

#1380000
1aad

#1390000
0aad

#1400000
1aad

#1410000
0aad

#1420000
1aad

#1430000
0aad

#1440000
1aad

#1450000
0aad

#1460000
1aad

#1470000
0aad

#1480000
1aad

#1490000
0aad

#1500000
1aad

#1510000
0aad

#1520000
1aad

#1530000
0aad

#1540000
1aad

#1550000
0aad

#1560000
1aad

#1570000
0aad

#1580000
1aad

#1590000
0aad

#1600000
1aad

#1610000
0aad

#1620000
1aad

#1630000
0aad

#1640000
1aad

#1650000
0aad

#1660000
1aad

#1670000
0aad

#1680000
1aad

#1690000
0aad

#1700000
1aad

#1710000
0aad

#1720000
1aad

#1730000
0aad

#1740000
1aad

#1750000
0aad

#1760000
1aad

#1770000
0aad

#1780000
1aad

#1790000
0aad

#1800000
1aad

#1810000
0aad

#1820000
1aad

#1830000
0aad

#1840000
1aad

#1850000
0aad

#1860000
1aad

#1870000
0aad

#1880000
1aad

#1890000
0aad

#1900000
1aad

#1910000
0aad

#1920000
1aad

#1930000
0aad

#1940000
1aad

#1950000
0aad

#1960000
1aad

#1970000
0aad

#1980000
1aad

#1990000
0aad

#2000000
1aad

#2005001
0aae

#2010000
0aad

#2020000
b1 aaa
1aad

#2020001
b101 aab

#2030000
0aad

#2040000
b10 aaa
1aad

#2040001
b111 aab

#2050000
0aad

#2060000
b0 aaa
1aad

#2060001
b1001 aab

#2070000
0aad

#2080000
b1 aaa
1aad

#2080001
b10010 aab

#2090000
0aad

#2100000
b10 aaa
1aad

#2100001
b111 aab

#2110000
0aad

#2120000
b0 aaa
b1 aac
1aad

#2120001
b11 aab

#2130000
0aad

#2140000
b1 aaa
1aad

#2140001
b10110 aab

#2150000
0aad

#2160000
b10 aaa
1aad

#2160001
b100 aab

#2170000
0aad

#2180000
b0 aaa
1aad

#2180001
b1001 aab

#2190000
0aad

#2200000
b1 aaa
1aad

#2200001
b100 aab

#2210000
0aad

#2220000
b10 aaa
1aad

#2220001
b110 aab

#2230000
0aad

#2240000
b0 aaa
b10 aac
1aad

#2240001
b1111000 aab

#2250000
0aad

#2260000
b1 aaa
1aad

#2260001
b100 aab

#2270000
0aad

#2280000
b10 aaa
1aad

#2290000
0aad

#2300000
b0 aaa
b10001 aac
1aad

#2300001
b100011 aab

#2310000
0aad

#2320000
b1 aaa
1aad

#2320001
b100 aab

#2330000
0aad

#2340000
b10 aaa
1aad

#2340001
b1001 aab

#2350000
0aad

#2360000
b0 aaa
b10110 aac
1aad

#2360001
b111 aab

#2370000
0aad

#2380000
b1 aaa
1aad

#2380001
b101 aab

#2390000
0aad

#2400000
b10 aaa
1aad

#2400001
b11 aab

#2410000
0aad

#2420000
b0 aaa
b10111 aac
1aad

#2420001
b111 aab

#2430000
0aad

#2440000
b1 aaa
1aad

#2440001
b101 aab

#2450000
0aad

#2460000
b10 aaa
1aad

#2460001
b11 aab

#2470000
0aad

#2480000
b0 aaa
1aad

